<svg width="17" height="17" viewBox="0 0 17 17" fill="none" xmlns="http://www.w3.org/2000/svg">
<path d="M8.38747 1.37868C8.29871 1.37547 8.20811 1.38249 8.11714 1.40065L2.93626 2.4367C2.22227 2.5797 1.70312 3.21278 1.70312 3.94083V12.4236C1.70312 13.1514 2.22233 13.7849 2.93626 13.9277L8.11714 14.9638C8.77998 15.0963 9.39288 14.6223 9.50142 13.9777H12.7827C13.8121 13.9777 14.6577 13.1321 14.6577 12.1027V4.60267C14.6577 3.5732 13.8121 2.72767 12.7827 2.72767H9.54403V2.57053C9.54403 1.92108 9.00884 1.40115 8.38747 1.37868ZM8.31756 2.40341C8.4332 2.38031 8.52131 2.45231 8.52131 2.57053V13.7939C8.52131 13.9121 8.4331 13.9842 8.31756 13.961V13.9604L3.13734 12.9243H3.13667C2.89433 12.8759 2.72585 12.6706 2.72585 12.4236V3.94083C2.72585 3.69387 2.89473 3.48804 3.13734 3.43945L8.31756 2.40341ZM9.54403 3.7504H12.7827C13.2593 3.7504 13.6349 4.126 13.6349 4.60267V12.1027C13.6349 12.5793 13.2593 12.9549 12.7827 12.9549H9.54403V3.7504ZM10.7372 5.11403C10.6695 5.11308 10.6022 5.12559 10.5393 5.15086C10.4764 5.17613 10.4192 5.21364 10.3709 5.26122C10.3227 5.3088 10.2843 5.3655 10.2582 5.42802C10.232 5.49054 10.2186 5.55763 10.2186 5.6254C10.2186 5.69317 10.232 5.76026 10.2582 5.82278C10.2843 5.88529 10.3227 5.94199 10.3709 5.98957C10.4192 6.03715 10.4764 6.07466 10.5393 6.09993C10.6022 6.1252 10.6695 6.13772 10.7372 6.13676H12.1009C12.1686 6.13772 12.2359 6.1252 12.2988 6.09993C12.3617 6.07466 12.4189 6.03715 12.4671 5.98957C12.5154 5.94199 12.5537 5.88529 12.5799 5.82278C12.606 5.76026 12.6195 5.69317 12.6195 5.6254C12.6195 5.55763 12.606 5.49054 12.5799 5.42802C12.5537 5.3655 12.5154 5.3088 12.4671 5.26122C12.4189 5.21364 12.3617 5.17613 12.2988 5.15086C12.2359 5.12559 12.1686 5.11308 12.1009 5.11403H10.7372ZM4.42973 5.84978C4.33126 5.84716 4.23066 5.87305 4.14142 5.92969C3.90347 6.08139 3.83359 6.39718 3.98495 6.63547L5.00368 8.23615L3.98495 9.83682C3.83359 10.0751 3.90347 10.3909 4.14142 10.5426C4.22665 10.5965 4.32166 10.6225 4.41575 10.6225C4.5845 10.6225 4.75038 10.5392 4.84788 10.3861L5.6096 9.18896L6.37132 10.3855C6.46916 10.5385 6.63469 10.6225 6.80344 10.6225C6.89754 10.6225 6.99188 10.5972 7.0771 10.5426C7.31506 10.3909 7.38561 10.0745 7.23424 9.83616L6.21618 8.23615L7.23424 6.63614C7.38561 6.39784 7.31506 6.08139 7.0771 5.92969C6.83949 5.77832 6.52336 5.84819 6.37132 6.08682L5.6096 7.28333L4.84788 6.08616C4.75306 5.93701 4.59384 5.85416 4.42973 5.84978ZM10.7372 7.84131C10.6695 7.84035 10.6022 7.85287 10.5393 7.87813C10.4764 7.9034 10.4192 7.94092 10.3709 7.9885C10.3227 8.03608 10.2843 8.09277 10.2582 8.15529C10.232 8.21781 10.2186 8.2849 10.2186 8.35267C10.2186 8.42044 10.232 8.48753 10.2582 8.55005C10.2843 8.61257 10.3227 8.66926 10.3709 8.71684C10.4192 8.76442 10.4764 8.80194 10.5393 8.8272C10.6022 8.85247 10.6695 8.86499 10.7372 8.86403H12.1009C12.1686 8.86499 12.2359 8.85247 12.2988 8.8272C12.3617 8.80194 12.4189 8.76442 12.4671 8.71684C12.5154 8.66926 12.5537 8.61257 12.5799 8.55005C12.606 8.48753 12.6195 8.42044 12.6195 8.35267C12.6195 8.2849 12.606 8.21781 12.5799 8.15529C12.5537 8.09277 12.5154 8.03608 12.4671 7.9885C12.4189 7.94092 12.3617 7.9034 12.2988 7.87813C12.2359 7.85287 12.1686 7.84035 12.1009 7.84131H10.7372ZM10.7372 10.5686C10.6695 10.5676 10.6022 10.5801 10.5393 10.6054C10.4764 10.6307 10.4192 10.6682 10.3709 10.7158C10.3227 10.7633 10.2843 10.82 10.2582 10.8826C10.232 10.9451 10.2186 11.0122 10.2186 11.0799C10.2186 11.1477 10.232 11.2148 10.2582 11.2773C10.2843 11.3398 10.3227 11.3965 10.3709 11.4441C10.4192 11.4917 10.4764 11.5292 10.5393 11.5545C10.6022 11.5797 10.6695 11.5923 10.7372 11.5913H12.1009C12.1686 11.5923 12.2359 11.5797 12.2988 11.5545C12.3617 11.5292 12.4189 11.4917 12.4671 11.4441C12.5154 11.3965 12.5537 11.3398 12.5799 11.2773C12.606 11.2148 12.6195 11.1477 12.6195 11.0799C12.6195 11.0122 12.606 10.9451 12.5799 10.8826C12.5537 10.82 12.5154 10.7633 12.4671 10.7158C12.4189 10.6682 12.3617 10.6307 12.2988 10.6054C12.2359 10.5801 12.1686 10.5676 12.1009 10.5686H10.7372Z" fill="#41416E"/>
</svg>
